2020510
…
## The following object is masked from 'package:raster':
## 
##     extract

library(spData)

world

## Simple feature collection with 177 features and 10 fields
## Geometry type: MULTIPOLYGON
## Dimension:     XY
## Bounding box:  xmin: -180 ymin: -90 xmax: 180 ymax: 83.64513
## Geodetic CRS:  WGS 84
## # A tibble: 177 x 11
##    iso_a2 name_long continent region_un subregion type  area_km2     pop lifeExp
##    <chr>  <chr>     <chr>     <chr>     <chr>     <chr>    <dbl>   <dbl>   <dbl>
##  1 FJ     Fiji      Oceania   Oceania   Melanesia Sove   1.93e4  8.86e5    70.0
##  2 TZ     Tanzania  Africa    Africa    Eastern  Sove   9.33e5  5.22e7    64.2
##  3 EH     Western  Africa    Africa    Northern Inde   9.63e4 NA         NA  
##  4 CA     Canada    North Am Americas  Northern Sove   1.00e7  3.55e7    82.0
##  5 US     United S North Am Americas  Northern Coun   9.51e6  3.19e8    78.8
##  6 KZ     Kazakhst Asia      Asia      Central  Sove   2.73e6  1.73e7    71.6
##  7 UZ     Uzbekist Asia      Asia      Central  Sove   4.61e5  3.08e7    71.0
##  8 PG     Papua Ne Oceania   Oceania   Melanesia Sove   4.65e5  7.76e6    65.2
##  9 ID     Indonesia Asia      Asia      South-Ea Sove   1.82e6  2.55e8    68.9
## 10 AR     Argentina South Am Americas  South Am Sove   2.78e6  4.30e7    76.3
## #  with 167 more rows, and 2 more variables: gdpPercap <dbl>,
## #   geom <MULTIPOLYGON []>

coffee_data

## # A tibble: 47 x 3
##    name_long                coffee_production_2016 coffee_production_2017
##    <chr>                                     <int>                  <int>
##  1 Angola                                       NA                     NA
##  2 Bolivia                                       3                      4
##  3 Brazil                                     3277                   2786
##  4 Burundi                                      37                     38
##  5 Cameroon                                      8                      6
##  6 Central African Republic                     NA                     NA
##  7 Congo, Dem. Rep. of                           4                     12
##  8 Colombia                                   1330                   1169
##  9 Costa Rica                                   28                     32
## 10 Cte d'Ivoire                               114                    130
## #  with 37 more rows

world_coffee = left_join(world, coffee_data, by="name_long")
#(name_long)((left))
class(world_coffee)

## [1] "sf"         "tbl_df"     "tbl"        "data.frame"

world_coffee

## Simple feature collection with 177 features and 12 fields
## Geometry type: MULTIPOLYGON
## Dimension:     XY
## Bounding box:  xmin: -180 ymin: -90 xmax: 180 ymax: 83.64513
## Geodetic CRS:  WGS 84
## # A tibble: 177 x 13
##    iso_a2 name_long continent region_un subregion type  area_km2     pop lifeExp
##    <chr>  <chr>     <chr>     <chr>     <chr>     <chr>    <dbl>   <dbl>   <dbl>
##  1 FJ     Fiji      Oceania   Oceania   Melanesia Sove   1.93e4  8.86e5    70.0
##  2 TZ     Tanzania  Africa    Africa    Eastern  Sove   9.33e5  5.22e7    64.2
##  3 EH     Western  Africa    Africa    Northern Inde   9.63e4 NA         NA  
##  4 CA     Canada    North Am Americas  Northern Sove   1.00e7  3.55e7    82.0
##  5 US     United S North Am Americas  Northern Coun   9.51e6  3.19e8    78.8
##  6 KZ     Kazakhst Asia      Asia      Central  Sove   2.73e6  1.73e7    71.6
##  7 UZ     Uzbekist Asia      Asia      Central  Sove   4.61e5  3.08e7    71.0
##  8 PG     Papua Ne Oceania   Oceania   Melanesia Sove   4.65e5  7.76e6    65.2
##  9 ID     Indonesia Asia      Asia      South-Ea Sove   1.82e6  2.55e8    68.9
## 10 AR     Argentina South Am Americas  South Am Sove   2.78e6  4.30e7    76.3
## #  with 167 more rows, and 4 more variables: gdpPercap <dbl>,
## #   geom <MULTIPOLYGON []>, coffee_production_2016 <int>,
## #   coffee_production_2017 <int>
…
world_coffee_inner <- inner_join(world, coffee_data)

## Joining, by = "name_long"

world_coffee_inner

## Simple feature collection with 45 features and 12 fields
## Geometry type: MULTIPOLYGON
## Dimension:     XY
## Bounding box:  xmin: -117.1278 ymin: -33.76838 xmax: 156.02 ymax: 35.49401
## Geodetic CRS:  WGS 84
## # A tibble: 45 x 13
##    iso_a2 name_long  continent region_un subregion type  area_km2    pop lifeExp
##    <chr>  <chr>      <chr>     <chr>     <chr>     <chr>    <dbl>  <dbl>   <dbl>
##  1 TZ     Tanzania   Africa    Africa    Eastern  Sove  932746. 5.22e7    64.2
##  2 PG     Papua New Oceania   Oceania   Melanesia Sove  464520. 7.76e6    65.2
##  3 ID     Indonesia  Asia      Asia      South-Ea Sove 1819251. 2.55e8    68.9
##  4 KE     Kenya      Africa    Africa    Eastern  Sove  590837. 4.60e7    66.2
##  5 DO     Dominican North Am Americas  Caribbean Sove   48158. 1.04e7    73.5
##  6 TL     Timor-Les Asia      Asia      South-Ea Sove   14715. 1.21e6    68.3
##  7 MX     Mexico     North Am Americas  Central  Sove 1969480. 1.24e8    76.8
##  8 BR     Brazil     South Am Americas  South Am Sove 8508557. 2.04e8    75.0
##  9 BO     Bolivia    South Am Americas  South Am Sove 1085270. 1.06e7    68.4
## 10 PE     Peru       South Am Americas  South Am Sove 1309700. 3.10e7    74.5
## #  with 35 more rows, and 4 more variables: gdpPercap <dbl>,
## #   geom <MULTIPOLYGON []>, coffee_production_2016 <int>,
## #   coffee_production_2017 <int>

world_new = world # do not overwrite our original data
world_new$pop_dens = world_new$pop / world_new$area_km2

world_new

## Simple feature collection with 177 features and 11 fields
## Geometry type: MULTIPOLYGON
## Dimension:     XY
## Bounding box:  xmin: -180 ymin: -90 xmax: 180 ymax: 83.64513
## Geodetic CRS:  WGS 84
## # A tibble: 177 x 12
##    iso_a2 name_long continent region_un subregion type  area_km2     pop lifeExp
##  * <chr>  <chr>     <chr>     <chr>     <chr>     <chr>    <dbl>   <dbl>   <dbl>
##  1 FJ     Fiji      Oceania   Oceania   Melanesia Sove   1.93e4  8.86e5    70.0
##  2 TZ     Tanzania  Africa    Africa    Eastern  Sove   9.33e5  5.22e7    64.2
##  3 EH     Western  Africa    Africa    Northern Inde   9.63e4 NA         NA  
##  4 CA     Canada    North Am Americas  Northern Sove   1.00e7  3.55e7    82.0
##  5 US     United S North Am Americas  Northern Coun   9.51e6  3.19e8    78.8
##  6 KZ     Kazakhst Asia      Asia      Central  Sove   2.73e6  1.73e7    71.6
##  7 UZ     Uzbekist Asia      Asia      Central  Sove   4.61e5  3.08e7    71.0
##  8 PG     Papua Ne Oceania   Oceania   Melanesia Sove   4.65e5  7.76e6    65.2
##  9 ID     Indonesia Asia      Asia      South-Ea Sove   1.82e6  2.55e8    68.9
## 10 AR     Argentina South Am Americas  South Am Sove   2.78e6  4.30e7    76.3
## #  with 167 more rows, and 3 more variables: gdpPercap <dbl>,
## #   geom <MULTIPOLYGON []>, pop_dens <dbl>
…
world %>% transmute(pop_dens = pop/area_km2) %>%
  st_drop_geometry()

## # A tibble: 177 x 1
##    pop_dens
##  *    <dbl>
##  1    45.9 
##  2    56.0 
##  3    NA   
##  4     3.54
##  5    33.5 
##  6     6.33
##  7    66.7 
##  8    16.7 
##  9   140.  
## 10    15.4 
## #  with 167 more rows
…
